%!PS-Adobe-3.0 EPSF-3.0
%%Creator: (MATLAB, The Mathworks, Inc. Version 9.10.0.1739362 \(R2021a\) Update 5. Operating System: Windows 10)
%%Title: (C:/Users/rkurnia/Documents/2. publication/202211 NEMOH MANUAL/figures/Ver_NonSymmetrical_dampcoef.eps)
%%CreationDate: 2022-11-24T06:51:44
%%Pages: (atend)
%%BoundingBox:     0     0   922   576
%%LanguageLevel: 3
%%EndComments
%%BeginProlog
%%BeginResource: procset (Apache XML Graphics Std ProcSet) 1.2 0
%%Version: 1.2 0
%%Copyright: (Copyright 2001-2003,2010 The Apache Software Foundation. License terms: http://www.apache.org/licenses/LICENSE-2.0)
/bd{bind def}bind def
/ld{load def}bd
/GR/grestore ld
/GS/gsave ld
/RM/rmoveto ld
/C/curveto ld
/t/show ld
/L/lineto ld
/ML/setmiterlimit ld
/CT/concat ld
/f/fill ld
/N/newpath ld
/S/stroke ld
/CC/setcmykcolor ld
/A/ashow ld
/cp/closepath ld
/RC/setrgbcolor ld
/LJ/setlinejoin ld
/GC/setgray ld
/LW/setlinewidth ld
/M/moveto ld
/re {4 2 roll M
1 index 0 rlineto
0 exch rlineto
neg 0 rlineto
cp } bd
/_ctm matrix def
/_tm matrix def
/BT { _ctm currentmatrix pop matrix _tm copy pop 0 0 moveto } bd
/ET { _ctm setmatrix } bd
/iTm { _ctm setmatrix _tm concat } bd
/Tm { _tm astore pop iTm 0 0 moveto } bd
/ux 0.0 def
/uy 0.0 def
/F {
  /Tp exch def
  /Tf exch def
  Tf findfont Tp scalefont setfont
  /cf Tf def  /cs Tp def
} bd
/ULS {currentpoint /uy exch def /ux exch def} bd
/ULE {
  /Tcx currentpoint pop def
  gsave
  newpath
  cf findfont cs scalefont dup
  /FontMatrix get 0 get /Ts exch def /FontInfo get dup
  /UnderlinePosition get Ts mul /To exch def
  /UnderlineThickness get Ts mul /Tt exch def
  ux uy To add moveto  Tcx uy To add lineto
  Tt setlinewidth stroke
  grestore
} bd
/OLE {
  /Tcx currentpoint pop def
  gsave
  newpath
  cf findfont cs scalefont dup
  /FontMatrix get 0 get /Ts exch def /FontInfo get dup
  /UnderlinePosition get Ts mul /To exch def
  /UnderlineThickness get Ts mul /Tt exch def
  ux uy To add cs add moveto Tcx uy To add cs add lineto
  Tt setlinewidth stroke
  grestore
} bd
/SOE {
  /Tcx currentpoint pop def
  gsave
  newpath
  cf findfont cs scalefont dup
  /FontMatrix get 0 get /Ts exch def /FontInfo get dup
  /UnderlinePosition get Ts mul /To exch def
  /UnderlineThickness get Ts mul /Tt exch def
  ux uy To add cs 10 mul 26 idiv add moveto Tcx uy To add cs 10 mul 26 idiv add lineto
  Tt setlinewidth stroke
  grestore
} bd
/QT {
/Y22 exch store
/X22 exch store
/Y21 exch store
/X21 exch store
currentpoint
/Y21 load 2 mul add 3 div exch
/X21 load 2 mul add 3 div exch
/X21 load 2 mul /X22 load add 3 div
/Y21 load 2 mul /Y22 load add 3 div
/X22 load /Y22 load curveto
} bd
/SSPD {
dup length /d exch dict def
{
/v exch def
/k exch def
currentpagedevice k known {
/cpdv currentpagedevice k get def
v cpdv ne {
/upd false def
/nullv v type /nulltype eq def
/nullcpdv cpdv type /nulltype eq def
nullv nullcpdv or
{
/upd true def
} {
/sametype v type cpdv type eq def
sametype {
v type /arraytype eq {
/vlen v length def
/cpdvlen cpdv length def
vlen cpdvlen eq {
0 1 vlen 1 sub {
/i exch def
/obj v i get def
/cpdobj cpdv i get def
obj cpdobj ne {
/upd true def
exit
} if
} for
} {
/upd true def
} ifelse
} {
v type /dicttype eq {
v {
/dv exch def
/dk exch def
/cpddv cpdv dk get def
dv cpddv ne {
/upd true def
exit
} if
} forall
} {
/upd true def
} ifelse
} ifelse
} if
} ifelse
upd true eq {
d k v put
} if
} if
} if
} forall
d length 0 gt {
d setpagedevice
} if
} bd
/RE { % /NewFontName [NewEncodingArray] /FontName RE -
  findfont dup length dict begin
  {
    1 index /FID ne
    {def} {pop pop} ifelse
  } forall
  /Encoding exch def
  /FontName 1 index def
  currentdict definefont pop
  end
} bind def
%%EndResource
%%BeginResource: procset (Apache XML Graphics EPS ProcSet) 1.0 0
%%Version: 1.0 0
%%Copyright: (Copyright 2002-2003 The Apache Software Foundation. License terms: http://www.apache.org/licenses/LICENSE-2.0)
/BeginEPSF { %def
/b4_Inc_state save def         % Save state for cleanup
/dict_count countdictstack def % Count objects on dict stack
/op_count count 1 sub def      % Count objects on operand stack
userdict begin                 % Push userdict on dict stack
/showpage { } def              % Redefine showpage, { } = null proc
0 setgray 0 setlinecap         % Prepare graphics state
1 setlinewidth 0 setlinejoin
10 setmiterlimit [ ] 0 setdash newpath
/languagelevel where           % If level not equal to 1 then
{pop languagelevel             % set strokeadjust and
1 ne                           % overprint to their defaults.
{false setstrokeadjust false setoverprint
} if
} if
} bd
/EndEPSF { %def
count op_count sub {pop} repeat            % Clean up stacks
countdictstack dict_count sub {end} repeat
b4_Inc_state restore
} bd
%%EndResource
%FOPBeginFontDict
%%IncludeResource: font Courier-Oblique
%%IncludeResource: font Courier-BoldOblique
%%IncludeResource: font Courier-Bold
%%IncludeResource: font ZapfDingbats
%%IncludeResource: font Symbol
%%IncludeResource: font Helvetica
%%IncludeResource: font Helvetica-Oblique
%%IncludeResource: font Helvetica-Bold
%%IncludeResource: font Helvetica-BoldOblique
%%IncludeResource: font Times-Roman
%%IncludeResource: font Times-Italic
%%IncludeResource: font Times-Bold
%%IncludeResource: font Times-BoldItalic
%%IncludeResource: font Courier
%FOPEndFontDict
%%BeginResource: encoding WinAnsiEncoding
/WinAnsiEncoding [
/.notdef /.notdef /.notdef /.notdef /.notdef
/.notdef /.notdef /.notdef /.notdef /.notdef
/.notdef /.notdef /.notdef /.notdef /.notdef
/.notdef /.notdef /.notdef /.notdef /.notdef
/.notdef /.notdef /.notdef /.notdef /.notdef
/.notdef /.notdef /.notdef /.notdef /.notdef
/.notdef /.notdef /space /exclam /quotedbl
/numbersign /dollar /percent /ampersand /quotesingle
/parenleft /parenright /asterisk /plus /comma
/hyphen /period /slash /zero /one
/two /three /four /five /six
/seven /eight /nine /colon /semicolon
/less /equal /greater /question /at
/A /B /C /D /E
/F /G /H /I /J
/K /L /M /N /O
/P /Q /R /S /T
/U /V /W /X /Y
/Z /bracketleft /backslash /bracketright /asciicircum
/underscore /quoteleft /a /b /c
/d /e /f /g /h
/i /j /k /l /m
/n /o /p /q /r
/s /t /u /v /w
/x /y /z /braceleft /bar
/braceright /asciitilde /bullet /Euro /bullet
/quotesinglbase /florin /quotedblbase /ellipsis /dagger
/daggerdbl /circumflex /perthousand /Scaron /guilsinglleft
/OE /bullet /Zcaron /bullet /bullet
/quoteleft /quoteright /quotedblleft /quotedblright /bullet
/endash /emdash /asciitilde /trademark /scaron
/guilsinglright /oe /bullet /zcaron /Ydieresis
/space /exclamdown /cent /sterling /currency
/yen /brokenbar /section /dieresis /copyright
/ordfeminine /guillemotleft /logicalnot /sfthyphen /registered
/macron /degree /plusminus /twosuperior /threesuperior
/acute /mu /paragraph /middot /cedilla
/onesuperior /ordmasculine /guillemotright /onequarter /onehalf
/threequarters /questiondown /Agrave /Aacute /Acircumflex
/Atilde /Adieresis /Aring /AE /Ccedilla
/Egrave /Eacute /Ecircumflex /Edieresis /Igrave
/Iacute /Icircumflex /Idieresis /Eth /Ntilde
/Ograve /Oacute /Ocircumflex /Otilde /Odieresis
/multiply /Oslash /Ugrave /Uacute /Ucircumflex
/Udieresis /Yacute /Thorn /germandbls /agrave
/aacute /acircumflex /atilde /adieresis /aring
/ae /ccedilla /egrave /eacute /ecircumflex
/edieresis /igrave /iacute /icircumflex /idieresis
/eth /ntilde /ograve /oacute /ocircumflex
/otilde /odieresis /divide /oslash /ugrave
/uacute /ucircumflex /udieresis /yacute /thorn
/ydieresis
] def
%%EndResource
%FOPBeginFontReencode
/Courier-Oblique findfont
dup length dict begin
  {1 index /FID ne {def} {pop pop} ifelse} forall
  /Encoding WinAnsiEncoding def
  currentdict
end
/Courier-Oblique exch definefont pop
/Courier-BoldOblique findfont
dup length dict begin
  {1 index /FID ne {def} {pop pop} ifelse} forall
  /Encoding WinAnsiEncoding def
  currentdict
end
/Courier-BoldOblique exch definefont pop
/Courier-Bold findfont
dup length dict begin
  {1 index /FID ne {def} {pop pop} ifelse} forall
  /Encoding WinAnsiEncoding def
  currentdict
end
/Courier-Bold exch definefont pop
/Helvetica findfont
dup length dict begin
  {1 index /FID ne {def} {pop pop} ifelse} forall
  /Encoding WinAnsiEncoding def
  currentdict
end
/Helvetica exch definefont pop
/Helvetica-Oblique findfont
dup length dict begin
  {1 index /FID ne {def} {pop pop} ifelse} forall
  /Encoding WinAnsiEncoding def
  currentdict
end
/Helvetica-Oblique exch definefont pop
/Helvetica-Bold findfont
dup length dict begin
  {1 index /FID ne {def} {pop pop} ifelse} forall
  /Encoding WinAnsiEncoding def
  currentdict
end
/Helvetica-Bold exch definefont pop
/Helvetica-BoldOblique findfont
dup length dict begin
  {1 index /FID ne {def} {pop pop} ifelse} forall
  /Encoding WinAnsiEncoding def
  currentdict
end
/Helvetica-BoldOblique exch definefont pop
/Times-Roman findfont
dup length dict begin
  {1 index /FID ne {def} {pop pop} ifelse} forall
  /Encoding WinAnsiEncoding def
  currentdict
end
/Times-Roman exch definefont pop
/Times-Italic findfont
dup length dict begin
  {1 index /FID ne {def} {pop pop} ifelse} forall
  /Encoding WinAnsiEncoding def
  currentdict
end
/Times-Italic exch definefont pop
/Times-Bold findfont
dup length dict begin
  {1 index /FID ne {def} {pop pop} ifelse} forall
  /Encoding WinAnsiEncoding def
  currentdict
end
/Times-Bold exch definefont pop
/Times-BoldItalic findfont
dup length dict begin
  {1 index /FID ne {def} {pop pop} ifelse} forall
  /Encoding WinAnsiEncoding def
  currentdict
end
/Times-BoldItalic exch definefont pop
/Courier findfont
dup length dict begin
  {1 index /FID ne {def} {pop pop} ifelse} forall
  /Encoding WinAnsiEncoding def
  currentdict
end
/Courier exch definefont pop
%FOPEndFontReencode
%%EndProlog
%%Page: 1 1
%%PageBoundingBox: 0 0 922 576
%%BeginPageSetup
[1 0 0 -1 0 576] CT
%%EndPageSetup
GS
[0.6 0 0 0.6 0 0] CT
1 GC
N
0 0 1536 960 re
f
GR
GS
[0.6 0 0 0.6 0 0] CT
1 GC
N
0 0 1536 960 re
f
GR
GS
[0.6 0 0 0.6 0 0] CT
1 GC
N
200 254 M
714 254 L
714 82 L
200 82 L
cp
f
GR
GS
[0.6 0 0 0.6 0 0] CT
0.149 GC
2 setlinecap
1 LJ
0.833 LW
N
200 254 M
714 254 L
S
GR
GS
[0.6 0 0 0.6 0 0] CT
0.149 GC
2 setlinecap
1 LJ
0.833 LW
N
200 82 M
714 82 L
S
GR
GS
[0.6 0 0 0.6 0 0] CT
0.149 GC
2 setlinecap
1 LJ
0.833 LW
N
200 254 M
200 248.86 L
S
GR
GS
[0.6 0 0 0.6 0 0] CT
0.149 GC
2 setlinecap
1 LJ
0.833 LW
N
328.5 254 M
328.5 248.86 L
S
GR
GS
[0.6 0 0 0.6 0 0] CT
0.149 GC
2 setlinecap
1 LJ
0.833 LW
N
457 254 M
457 248.86 L
S
GR
GS
[0.6 0 0 0.6 0 0] CT
0.149 GC
2 setlinecap
1 LJ
0.833 LW
N
585.5 254 M
585.5 248.86 L
S
GR
GS
[0.6 0 0 0.6 0 0] CT
0.149 GC
2 setlinecap
1 LJ
0.833 LW
N
714 254 M
714 248.86 L
S
GR
GS
[0.6 0 0 0.6 0 0] CT
0.149 GC
2 setlinecap
1 LJ
0.833 LW
N
200 82 M
200 87.14 L
S
GR
GS
[0.6 0 0 0.6 0 0] CT
0.149 GC
2 setlinecap
1 LJ
0.833 LW
N
328.5 82 M
328.5 87.14 L
S
GR
GS
[0.6 0 0 0.6 0 0] CT
0.149 GC
2 setlinecap
1 LJ
0.833 LW
N
457 82 M
457 87.14 L
S
GR
GS
[0.6 0 0 0.6 0 0] CT
0.149 GC
2 setlinecap
1 LJ
0.833 LW
N
585.5 82 M
585.5 87.14 L
S
GR
GS
[0.6 0 0 0.6 0 0] CT
0.149 GC
2 setlinecap
1 LJ
0.833 LW
N
714 82 M
714 87.14 L
S
GR
GS
[0.6 0 0 0.6 120 157.40001] CT
0.149 GC
/Helvetica-Bold 25 F
GS
[1 0 0 1 0 0] CT
-7 26 moveto 
1 -1 scale
(0) t 
GR
GR
GS
[0.6 0 0 0.6 197.10001 157.40001] CT
0.149 GC
/Helvetica-Bold 25 F
GS
[1 0 0 1 0 0] CT
-17.5 26 moveto 
1 -1 scale
(0.5) t 
GR
GR
GS
[0.6 0 0 0.6 274.20001 157.40001] CT
0.149 GC
/Helvetica-Bold 25 F
GS
[1 0 0 1 0 0] CT
-7 26 moveto 
1 -1 scale
(1) t 
GR
GR
GS
[0.6 0 0 0.6 351.30001 157.40001] CT
0.149 GC
/Helvetica-Bold 25 F
GS
[1 0 0 1 0 0] CT
-17.5 26 moveto 
1 -1 scale
(1.5) t 
GR
GR
GS
[0.6 0 0 0.6 428.40002 157.40001] CT
0.149 GC
/Helvetica-Bold 25 F
GS
[1 0 0 1 0 0] CT
-7 26 moveto 
1 -1 scale
(2) t 
GR
GR
GS
[0.6 0 0 0.6 240.60001 194.4] CT
0.149 GC
N
4.391 0.313 M
2.813 0.313 2.102 -0.852 QT
1.391 -2.016 1.391 -3.688 QT
1.391 -4.797 1.594 -5.859 QT
1.797 -6.922 2.195 -8.008 QT
2.594 -9.094 3.117 -10.047 QT
3.641 -11 4.281 -11.891 QT
4.406 -12.078 4.609 -12.078 QT
5.781 -12.078 5.891 -11.969 QT
6 -11.859 6 -11.703 QT
6 -11.547 5.922 -11.438 QT
3.375 -7.922 3.375 -4.953 QT
3.375 -3.672 3.969 -2.742 QT
4.563 -1.813 4.781 -1.813 QT
5.828 -1.813 6.727 -2.43 QT
7.625 -3.047 8.281 -4 QT
8.281 -4.5 8.445 -5.539 QT
8.609 -6.578 8.977 -7.391 QT
9.344 -8.203 9.844 -8.203 QT
11.484 -8.203 11.484 -7.453 QT
11.484 -7.016 11.305 -6.352 QT
11.125 -5.688 10.898 -5.117 QT
10.672 -4.547 10.344 -3.813 QT
10.672 -1.813 11.344 -1.813 QT
12.313 -1.813 13.289 -2.375 QT
14.266 -2.938 15.016 -3.852 QT
15.766 -4.766 16.195 -5.813 QT
16.625 -6.859 16.625 -7.813 QT
16.625 -8.656 16.359 -9.125 QT
16.094 -9.594 15.656 -10.117 QT
15.219 -10.641 15.219 -10.953 QT
15.219 -11.5 15.688 -11.953 QT
16.156 -12.406 16.688 -12.406 QT
18.359 -12.406 18.648 -11.781 QT
18.938 -11.156 18.938 -10.359 QT
18.938 -9.078 18.43 -7.125 QT
17.922 -5.172 17.266 -3.875 QT
16.359 -2.109 15 -0.898 QT
13.641 0.313 10.938 0.313 QT
9.859 0.313 9.195 -0.336 QT
8.531 -0.984 8.531 -0.984 QT
8.531 -0.984 7.547 -0.336 QT
6.563 0.313 4.391 0.313 QT
cp
f
GR
GS
[0.6 0 0 0.6 252.00001 194.4] CT
0.149 GC
/Helvetica-Bold 27.5 F
GS
[1 0 0 1 0 0] CT
0 0 moveto 
1 -1 scale
( [rad/s]) t 
GR
GR
GS
[0.6 0 0 0.6 0 0] CT
0.149 GC
2 setlinecap
1 LJ
0.833 LW
N
200 254 M
200 82 L
S
GR
GS
[0.6 0 0 0.6 0 0] CT
0.149 GC
2 setlinecap
1 LJ
0.833 LW
N
714 254 M
714 82 L
S
GR
GS
[0.6 0 0 0.6 0 0] CT
0.149 GC
2 setlinecap
1 LJ
0.833 LW
N
200 254 M
205.14 254 L
S
GR
GS
[0.6 0 0 0.6 0 0] CT
0.149 GC
2 setlinecap
1 LJ
0.833 LW
N
200 142.867 M
205.14 142.867 L
S
GR
GS
[0.6 0 0 0.6 0 0] CT
0.149 GC
2 setlinecap
1 LJ
0.833 LW
N
714 254 M
708.86 254 L
S
GR
GS
[0.6 0 0 0.6 0 0] CT
0.149 GC
2 setlinecap
1 LJ
0.833 LW
N
714 142.867 M
708.86 142.867 L
S
GR
GS
[0.6 0 0 0.6 115.00001 152.4] CT
0.149 GC
/Helvetica-Bold 25 F
GS
[1 0 0 1 0 0] CT
-14 10 moveto 
1 -1 scale
(0) t 
GR
GR
GS
[0.6 0 0 0.6 115.00001 85.71994] CT
0.149 GC
/Helvetica-Bold 25 F
GS
[1 0 0 1 0 0] CT
-14 10 moveto 
1 -1 scale
(5) t 
GR
GR
GS
[0 -0.6 0.6 0 93 113.4] CT
0.149 GC
/Helvetica-Bold 27.5 F
GS
[1 0 0 1 0 0] CT
0 0 moveto 
1 -1 scale
(b) t 
GR
GR
GS
[0 -0.6 0.6 0 100.8 103.2] CT
0.149 GC
/Helvetica-Bold 22 F
GS
[1 0 0 1 0 0] CT
0 0 moveto 
1 -1 scale
(11) t 
GR
GR
GS
[0.6 0 0 0.6 120 45.6] CT
0.149 GC
N
3.672 -0.719 M
3.672 -0.922 3.797 -1.078 QT
9 -6.25 L
3.797 -11.453 L
3.672 -11.578 3.672 -11.781 QT
3.672 -11.969 3.82 -12.125 QT
3.969 -12.281 4.172 -12.281 QT
5.344 -12.281 5.547 -12.125 QT
10.219 -7.453 L
14.875 -12.125 L
15.094 -12.281 15.25 -12.281 QT
16.453 -12.281 16.602 -12.133 QT
16.75 -11.984 16.75 -11.781 QT
16.75 -11.578 16.625 -11.453 QT
11.422 -6.25 L
16.625 -1.078 L
16.75 -0.922 16.75 -0.719 QT
16.75 -0.516 16.602 -0.367 QT
16.453 -0.219 15.25 -0.219 QT
15.063 -0.219 14.875 -0.406 QT
10.219 -5.047 L
5.547 -0.406 L
5.375 -0.219 4.172 -0.219 QT
3.969 -0.219 3.82 -0.375 QT
3.672 -0.531 3.672 -0.719 QT
cp
f
GR
GS
[0.6 0 0 0.6 132.60001 45.6] CT
0.149 GC
/Helvetica-Bold 25 F
GS
[1 0 0 1 0 0] CT
0 0 moveto 
1 -1 scale
(10) t 
GR
GR
GS
[0.6 0 0 0.6 149.40001 38.4] CT
0.149 GC
/Helvetica-Bold 20 F
GS
[1 0 0 1 0 0] CT
0 0 moveto 
1 -1 scale
(5) t 
GR
GR
GS
[0.6 0 0 0.6 0 0] CT
0 0 1 RC
1 LJ
3.333 LW
N
225.7 254 M
237.908 254 L
250.115 253.999 L
262.323 253.996 L
274.53 253.986 L
286.737 253.959 L
298.945 253.9 L
311.152 253.78 L
323.36 253.554 L
335.568 253.158 L
347.775 252.499 L
359.983 251.453 L
372.19 249.853 L
384.397 247.489 L
396.605 244.098 L
408.813 239.373 L
421.02 232.972 L
433.228 224.554 L
445.435 213.833 L
457.643 200.675 L
469.85 185.208 L
482.057 167.931 L
494.265 149.752 L
506.473 131.898 L
518.68 115.69 L
530.888 102.248 L
543.095 92.263 L
555.302 85.924 L
567.51 83.002 L
579.717 83.023 L
591.925 85.428 L
604.133 89.694 L
616.34 95.388 L
628.547 102.169 L
640.755 109.763 L
652.963 117.923 L
665.17 126.406 L
677.378 134.965 L
689.585 143.373 L
701.792 151.44 L
714 159.035 L
S
GR
GS
[0.6 0 0 0.6 0 0] CT
1 0 0 RC
[12 12] 0 setdash
2 LJ
3.333 LW
N
225.7 254 M
237.908 254 L
250.115 253.999 L
262.323 253.996 L
274.53 253.986 L
286.737 253.959 L
298.945 253.9 L
311.152 253.78 L
323.36 253.554 L
335.568 253.158 L
347.775 252.5 L
359.983 251.454 L
372.19 249.854 L
384.397 247.488 L
396.605 244.095 L
408.813 239.364 L
421.02 232.953 L
433.228 224.512 L
445.435 213.759 L
457.643 200.545 L
469.85 185.003 L
482.057 167.624 L
494.265 149.316 L
506.473 131.327 L
518.68 114.982 L
530.888 101.421 L
543.095 91.35 L
555.302 84.958 L
567.51 82 L
579.717 82.018 L
591.925 84.435 L
604.133 88.698 L
616.34 94.407 L
628.547 101.207 L
640.755 108.832 L
652.963 116.999 L
665.17 125.509 L
677.378 134.107 L
689.585 142.547 L
701.792 150.639 L
714 158.239 L
S
GR
GS
[0.6 0 0 0.6 0 0] CT
1 GC
N
876 254 M
1390 254 L
1390 82 L
876 82 L
cp
f
GR
GS
[0.6 0 0 0.6 0 0] CT
0.149 GC
2 setlinecap
1 LJ
0.833 LW
N
876 254 M
1390 254 L
S
GR
GS
[0.6 0 0 0.6 0 0] CT
0.149 GC
2 setlinecap
1 LJ
0.833 LW
N
876 82 M
1390 82 L
S
GR
GS
[0.6 0 0 0.6 0 0] CT
0.149 GC
2 setlinecap
1 LJ
0.833 LW
N
876 254 M
876 248.86 L
S
GR
GS
[0.6 0 0 0.6 0 0] CT
0.149 GC
2 setlinecap
1 LJ
0.833 LW
N
1004.5 254 M
1004.5 248.86 L
S
GR
GS
[0.6 0 0 0.6 0 0] CT
0.149 GC
2 setlinecap
1 LJ
0.833 LW
N
1133 254 M
1133 248.86 L
S
GR
GS
[0.6 0 0 0.6 0 0] CT
0.149 GC
2 setlinecap
1 LJ
0.833 LW
N
1261.5 254 M
1261.5 248.86 L
S
GR
GS
[0.6 0 0 0.6 0 0] CT
0.149 GC
2 setlinecap
1 LJ
0.833 LW
N
1390 254 M
1390 248.86 L
S
GR
GS
[0.6 0 0 0.6 0 0] CT
0.149 GC
2 setlinecap
1 LJ
0.833 LW
N
876 82 M
876 87.14 L
S
GR
GS
[0.6 0 0 0.6 0 0] CT
0.149 GC
2 setlinecap
1 LJ
0.833 LW
N
1004.5 82 M
1004.5 87.14 L
S
GR
GS
[0.6 0 0 0.6 0 0] CT
0.149 GC
2 setlinecap
1 LJ
0.833 LW
N
1133 82 M
1133 87.14 L
S
GR
GS
[0.6 0 0 0.6 0 0] CT
0.149 GC
2 setlinecap
1 LJ
0.833 LW
N
1261.5 82 M
1261.5 87.14 L
S
GR
GS
[0.6 0 0 0.6 0 0] CT
0.149 GC
2 setlinecap
1 LJ
0.833 LW
N
1390 82 M
1390 87.14 L
S
GR
GS
[0.6 0 0 0.6 525.60002 157.40001] CT
0.149 GC
/Helvetica-Bold 25 F
GS
[1 0 0 1 0 0] CT
-7 26 moveto 
1 -1 scale
(0) t 
GR
GR
GS
[0.6 0 0 0.6 602.70002 157.40001] CT
0.149 GC
/Helvetica-Bold 25 F
GS
[1 0 0 1 0 0] CT
-17.5 26 moveto 
1 -1 scale
(0.5) t 
GR
GR
GS
[0.6 0 0 0.6 679.80003 157.40001] CT
0.149 GC
/Helvetica-Bold 25 F
GS
[1 0 0 1 0 0] CT
-7 26 moveto 
1 -1 scale
(1) t 
GR
GR
GS
[0.6 0 0 0.6 756.90003 157.40001] CT
0.149 GC
/Helvetica-Bold 25 F
GS
[1 0 0 1 0 0] CT
-17.5 26 moveto 
1 -1 scale
(1.5) t 
GR
GR
GS
[0.6 0 0 0.6 834.00003 157.40001] CT
0.149 GC
/Helvetica-Bold 25 F
GS
[1 0 0 1 0 0] CT
-7 26 moveto 
1 -1 scale
(2) t 
GR
GR
GS
[0.6 0 0 0.6 646.20003 194.4] CT
0.149 GC
N
/f876989070{4.391 0.313 M
2.813 0.313 2.102 -0.852 QT
1.391 -2.016 1.391 -3.688 QT
1.391 -4.797 1.594 -5.859 QT
1.797 -6.922 2.195 -8.008 QT
2.594 -9.094 3.117 -10.047 QT
3.641 -11 4.281 -11.891 QT
4.406 -12.078 4.609 -12.078 QT
5.781 -12.078 5.891 -11.969 QT
6 -11.859 6 -11.703 QT
6 -11.547 5.922 -11.438 QT
3.375 -7.922 3.375 -4.953 QT
3.375 -3.672 3.969 -2.742 QT
4.563 -1.813 4.781 -1.813 QT
5.828 -1.813 6.727 -2.43 QT
7.625 -3.047 8.281 -4 QT
8.281 -4.5 8.445 -5.539 QT
8.609 -6.578 8.977 -7.391 QT
9.344 -8.203 9.844 -8.203 QT
11.484 -8.203 11.484 -7.453 QT
11.484 -7.016 11.305 -6.352 QT
11.125 -5.688 10.898 -5.117 QT
10.672 -4.547 10.344 -3.813 QT
10.672 -1.813 11.344 -1.813 QT
12.313 -1.813 13.289 -2.375 QT
14.266 -2.938 15.016 -3.852 QT
15.766 -4.766 16.195 -5.813 QT
16.625 -6.859 16.625 -7.813 QT
16.625 -8.656 16.359 -9.125 QT
16.094 -9.594 15.656 -10.117 QT
15.219 -10.641 15.219 -10.953 QT
15.219 -11.5 15.688 -11.953 QT
16.156 -12.406 16.688 -12.406 QT
18.359 -12.406 18.648 -11.781 QT
18.938 -11.156 18.938 -10.359 QT
18.938 -9.078 18.43 -7.125 QT
17.922 -5.172 17.266 -3.875 QT
16.359 -2.109 15 -0.898 QT
13.641 0.313 10.938 0.313 QT
9.859 0.313 9.195 -0.336 QT
8.531 -0.984 8.531 -0.984 QT
8.531 -0.984 7.547 -0.336 QT
6.563 0.313 4.391 0.313 QT
cp}def
f876989070
f
GR
GS
[0.6 0 0 0.6 657.60003 194.4] CT
0.149 GC
/Helvetica-Bold 27.5 F
GS
[1 0 0 1 0 0] CT
0 0 moveto 
1 -1 scale
( [rad/s]) t 
GR
GR
GS
[0.6 0 0 0.6 0 0] CT
0.149 GC
2 setlinecap
1 LJ
0.833 LW
N
876 254 M
876 82 L
S
GR
GS
[0.6 0 0 0.6 0 0] CT
0.149 GC
2 setlinecap
1 LJ
0.833 LW
N
1390 254 M
1390 82 L
S
GR
GS
[0.6 0 0 0.6 0 0] CT
0.149 GC
2 setlinecap
1 LJ
0.833 LW
N
876 254 M
881.14 254 L
S
GR
GS
[0.6 0 0 0.6 0 0] CT
0.149 GC
2 setlinecap
1 LJ
0.833 LW
N
876 142.669 M
881.14 142.669 L
S
GR
GS
[0.6 0 0 0.6 0 0] CT
0.149 GC
2 setlinecap
1 LJ
0.833 LW
N
1390 254 M
1384.86 254 L
S
GR
GS
[0.6 0 0 0.6 0 0] CT
0.149 GC
2 setlinecap
1 LJ
0.833 LW
N
1390 142.669 M
1384.86 142.669 L
S
GR
GS
[0.6 0 0 0.6 520.60003 152.4] CT
0.149 GC
/Helvetica-Bold 25 F
GS
[1 0 0 1 0 0] CT
-14 10 moveto 
1 -1 scale
(0) t 
GR
GR
GS
[0.6 0 0 0.6 520.60003 85.60156] CT
0.149 GC
/Helvetica-Bold 25 F
GS
[1 0 0 1 0 0] CT
-14 10 moveto 
1 -1 scale
(5) t 
GR
GR
GS
[0 -0.6 0.6 0 498.60002 113.4] CT
0.149 GC
/Helvetica-Bold 27.5 F
GS
[1 0 0 1 0 0] CT
0 0 moveto 
1 -1 scale
(b) t 
GR
GR
GS
[0 -0.6 0.6 0 506.40002 103.2] CT
0.149 GC
/Helvetica-Bold 22 F
GS
[1 0 0 1 0 0] CT
0 0 moveto 
1 -1 scale
(22) t 
GR
GR
GS
[0.6 0 0 0.6 525.60002 45.6] CT
0.149 GC
N
/f1086612530{3.672 -0.719 M
3.672 -0.922 3.797 -1.078 QT
9 -6.25 L
3.797 -11.453 L
3.672 -11.578 3.672 -11.781 QT
3.672 -11.969 3.82 -12.125 QT
3.969 -12.281 4.172 -12.281 QT
5.344 -12.281 5.547 -12.125 QT
10.219 -7.453 L
14.875 -12.125 L
15.094 -12.281 15.25 -12.281 QT
16.453 -12.281 16.602 -12.133 QT
16.75 -11.984 16.75 -11.781 QT
16.75 -11.578 16.625 -11.453 QT
11.422 -6.25 L
16.625 -1.078 L
16.75 -0.922 16.75 -0.719 QT
16.75 -0.516 16.602 -0.367 QT
16.453 -0.219 15.25 -0.219 QT
15.063 -0.219 14.875 -0.406 QT
10.219 -5.047 L
5.547 -0.406 L
5.375 -0.219 4.172 -0.219 QT
3.969 -0.219 3.82 -0.375 QT
3.672 -0.531 3.672 -0.719 QT
cp}def
f1086612530
f
GR
GS
[0.6 0 0 0.6 538.20002 45.6] CT
0.149 GC
/Helvetica-Bold 25 F
GS
[1 0 0 1 0 0] CT
0 0 moveto 
1 -1 scale
(10) t 
GR
GR
GS
[0.6 0 0 0.6 555.00002 38.4] CT
0.149 GC
/Helvetica-Bold 20 F
GS
[1 0 0 1 0 0] CT
0 0 moveto 
1 -1 scale
(5) t 
GR
GR
GS
[0.6 0 0 0.6 0 0] CT
0 0 1 RC
1 LJ
3.333 LW
N
901.7 254 M
913.907 254 L
926.115 253.999 L
938.323 253.996 L
950.53 253.986 L
962.737 253.96 L
974.945 253.901 L
987.153 253.78 L
999.36 253.555 L
1011.568 253.161 L
1023.775 252.504 L
1035.983 251.461 L
1048.19 249.866 L
1060.397 247.508 L
1072.605 244.125 L
1084.813 239.411 L
1097.02 233.023 L
1109.228 224.619 L
1121.435 213.914 L
1133.642 200.772 L
1145.85 185.318 L
1158.057 168.05 L
1170.265 149.873 L
1182.473 132.012 L
1194.68 115.79 L
1206.887 102.327 L
1219.095 92.317 L
1231.302 85.952 L
1243.51 83.005 L
1255.718 83.003 L
1267.925 85.388 L
1280.132 89.639 L
1292.34 95.319 L
1304.547 102.09 L
1316.755 109.675 L
1328.963 117.829 L
1341.17 126.306 L
1353.377 134.861 L
1365.585 143.267 L
1377.792 151.333 L
1390 158.928 L
S
GR
GS
[0.6 0 0 0.6 0 0] CT
1 0 0 RC
[12 12] 0 setdash
2 LJ
3.333 LW
N
901.7 254 M
913.907 254 L
926.115 253.999 L
938.323 253.996 L
950.53 253.986 L
962.737 253.96 L
974.945 253.901 L
987.153 253.781 L
999.36 253.556 L
1011.568 253.161 L
1023.775 252.505 L
1035.983 251.462 L
1048.19 249.867 L
1060.397 247.507 L
1072.605 244.122 L
1084.813 239.402 L
1097.02 233.004 L
1109.228 224.578 L
1121.435 213.841 L
1133.642 200.643 L
1145.85 185.114 L
1158.057 167.744 L
1170.265 149.437 L
1182.473 131.442 L
1194.68 115.082 L
1206.887 101.501 L
1219.095 91.406 L
1231.302 84.987 L
1243.51 82.004 L
1255.718 82 L
1267.925 84.397 L
1280.132 88.644 L
1292.34 94.34 L
1304.547 101.129 L
1316.755 108.745 L
1328.963 116.906 L
1341.17 125.411 L
1353.377 134.005 L
1365.585 142.443 L
1377.792 150.533 L
1390 158.133 L
S
GR
GS
[0.6 0 0 0.6 0 0] CT
1 GC
N
200 542 M
714 542 L
714 370 L
200 370 L
cp
f
GR
GS
[0.6 0 0 0.6 0 0] CT
0.149 GC
2 setlinecap
1 LJ
0.833 LW
N
200 542 M
714 542 L
S
GR
GS
[0.6 0 0 0.6 0 0] CT
0.149 GC
2 setlinecap
1 LJ
0.833 LW
N
200 370 M
714 370 L
S
GR
GS
[0.6 0 0 0.6 0 0] CT
0.149 GC
2 setlinecap
1 LJ
0.833 LW
N
200 542 M
200 536.86 L
S
GR
GS
[0.6 0 0 0.6 0 0] CT
0.149 GC
2 setlinecap
1 LJ
0.833 LW
N
328.5 542 M
328.5 536.86 L
S
GR
GS
[0.6 0 0 0.6 0 0] CT
0.149 GC
2 setlinecap
1 LJ
0.833 LW
N
457 542 M
457 536.86 L
S
GR
GS
[0.6 0 0 0.6 0 0] CT
0.149 GC
2 setlinecap
1 LJ
0.833 LW
N
585.5 542 M
585.5 536.86 L
S
GR
GS
[0.6 0 0 0.6 0 0] CT
0.149 GC
2 setlinecap
1 LJ
0.833 LW
N
714 542 M
714 536.86 L
S
GR
GS
[0.6 0 0 0.6 0 0] CT
0.149 GC
2 setlinecap
1 LJ
0.833 LW
N
200 370 M
200 375.14 L
S
GR
GS
[0.6 0 0 0.6 0 0] CT
0.149 GC
2 setlinecap
1 LJ
0.833 LW
N
328.5 370 M
328.5 375.14 L
S
GR
GS
[0.6 0 0 0.6 0 0] CT
0.149 GC
2 setlinecap
1 LJ
0.833 LW
N
457 370 M
457 375.14 L
S
GR
GS
[0.6 0 0 0.6 0 0] CT
0.149 GC
2 setlinecap
1 LJ
0.833 LW
N
585.5 370 M
585.5 375.14 L
S
GR
GS
[0.6 0 0 0.6 0 0] CT
0.149 GC
2 setlinecap
1 LJ
0.833 LW
N
714 370 M
714 375.14 L
S
GR
GS
[0.6 0 0 0.6 120 330.19999] CT
0.149 GC
/Helvetica-Bold 25 F
GS
[1 0 0 1 0 0] CT
-7 26 moveto 
1 -1 scale
(0) t 
GR
GR
GS
[0.6 0 0 0.6 197.10001 330.19999] CT
0.149 GC
/Helvetica-Bold 25 F
GS
[1 0 0 1 0 0] CT
-17.5 26 moveto 
1 -1 scale
(0.5) t 
GR
GR
GS
[0.6 0 0 0.6 274.20001 330.19999] CT
0.149 GC
/Helvetica-Bold 25 F
GS
[1 0 0 1 0 0] CT
-7 26 moveto 
1 -1 scale
(1) t 
GR
GR
GS
[0.6 0 0 0.6 351.30001 330.19999] CT
0.149 GC
/Helvetica-Bold 25 F
GS
[1 0 0 1 0 0] CT
-17.5 26 moveto 
1 -1 scale
(1.5) t 
GR
GR
GS
[0.6 0 0 0.6 428.40002 330.19999] CT
0.149 GC
/Helvetica-Bold 25 F
GS
[1 0 0 1 0 0] CT
-7 26 moveto 
1 -1 scale
(2) t 
GR
GR
GS
[0.6 0 0 0.6 240.60001 367.2] CT
0.149 GC
N
f876989070
f
GR
GS
[0.6 0 0 0.6 252.00001 367.2] CT
0.149 GC
/Helvetica-Bold 27.5 F
GS
[1 0 0 1 0 0] CT
0 0 moveto 
1 -1 scale
( [rad/s]) t 
GR
GR
GS
[0.6 0 0 0.6 0 0] CT
0.149 GC
2 setlinecap
1 LJ
0.833 LW
N
200 542 M
200 370 L
S
GR
GS
[0.6 0 0 0.6 0 0] CT
0.149 GC
2 setlinecap
1 LJ
0.833 LW
N
714 542 M
714 370 L
S
GR
GS
[0.6 0 0 0.6 0 0] CT
0.149 GC
2 setlinecap
1 LJ
0.833 LW
N
200 542 M
205.14 542 L
S
GR
GS
[0.6 0 0 0.6 0 0] CT
0.149 GC
2 setlinecap
1 LJ
0.833 LW
N
200 477.172 M
205.14 477.172 L
S
GR
GS
[0.6 0 0 0.6 0 0] CT
0.149 GC
2 setlinecap
1 LJ
0.833 LW
N
200 412.345 M
205.14 412.345 L
S
GR
GS
[0.6 0 0 0.6 0 0] CT
0.149 GC
2 setlinecap
1 LJ
0.833 LW
N
714 542 M
708.86 542 L
S
GR
GS
[0.6 0 0 0.6 0 0] CT
0.149 GC
2 setlinecap
1 LJ
0.833 LW
N
714 477.172 M
708.86 477.172 L
S
GR
GS
[0.6 0 0 0.6 0 0] CT
0.149 GC
2 setlinecap
1 LJ
0.833 LW
N
714 412.345 M
708.86 412.345 L
S
GR
GS
[0.6 0 0 0.6 115.00001 325.2] CT
0.149 GC
/Helvetica-Bold 25 F
GS
[1 0 0 1 0 0] CT
-14 10 moveto 
1 -1 scale
(0) t 
GR
GR
GS
[0.6 0 0 0.6 115.00001 286.30336] CT
0.149 GC
/Helvetica-Bold 25 F
GS
[1 0 0 1 0 0] CT
-56 10 moveto 
1 -1 scale
(5000) t 
GR
GR
GS
[0.6 0 0 0.6 115.00001 247.40674] CT
0.149 GC
/Helvetica-Bold 25 F
GS
[1 0 0 1 0 0] CT
-70 10 moveto 
1 -1 scale
(10000) t 
GR
GR
GS
[0 -0.6 0.6 0 59.4 286.2] CT
0.149 GC
/Helvetica-Bold 27.5 F
GS
[1 0 0 1 0 0] CT
0 0 moveto 
1 -1 scale
(b) t 
GR
GR
GS
[0 -0.6 0.6 0 67.2 276] CT
0.149 GC
/Helvetica-Bold 22 F
GS
[1 0 0 1 0 0] CT
0 0 moveto 
1 -1 scale
(33) t 
GR
GR
GS
[0.6 0 0 0.6 0 0] CT
0 0 1 RC
1 LJ
3.333 LW
N
225.7 540.255 M
237.908 536.57 L
250.115 529.974 L
262.323 520.094 L
274.53 506.939 L
286.737 490.901 L
298.945 472.701 L
311.152 453.314 L
323.36 433.859 L
335.568 415.484 L
347.775 399.259 L
359.983 386.081 L
372.19 376.606 L
384.397 371.215 L
396.605 370 L
408.813 372.781 L
421.02 379.151 L
433.228 388.528 L
445.435 400.219 L
457.643 413.492 L
469.85 427.628 L
482.057 441.978 L
494.265 455.991 L
506.473 469.233 L
518.68 481.398 L
530.888 492.293 L
543.095 501.83 L
555.302 510.004 L
567.51 516.873 L
579.717 522.541 L
591.925 527.137 L
604.133 530.801 L
616.34 533.676 L
628.547 535.896 L
640.755 537.586 L
652.963 538.852 L
665.17 539.787 L
677.378 540.469 L
689.585 540.958 L
701.792 541.305 L
714 541.548 L
S
GR
GS
[0.6 0 0 0.6 0 0] CT
1 0 0 RC
[12 12] 0 setdash
2 LJ
3.333 LW
N
225.7 540.255 M
237.908 536.569 L
250.115 529.971 L
262.323 520.089 L
274.53 506.932 L
286.737 490.891 L
298.945 472.688 L
311.152 453.3 L
323.36 433.847 L
335.568 415.479 L
347.775 399.261 L
359.983 386.089 L
372.19 376.64 L
384.397 371.269 L
396.605 370.081 L
408.813 372.894 L
421.02 379.299 L
433.228 388.706 L
445.435 400.431 L
457.643 413.743 L
469.85 427.859 L
482.057 442.295 L
494.265 456.215 L
506.473 469.412 L
518.68 481.813 L
530.888 492.399 L
543.095 501.83 L
555.302 510.327 L
567.51 516.945 L
579.717 522.33 L
591.925 527.097 L
604.133 531.241 L
616.34 533.563 L
628.547 535.684 L
640.755 537.631 L
652.963 539.251 L
665.17 539.839 L
677.378 540.517 L
689.585 541.213 L
701.792 541.68 L
714 541.723 L
S
GR
GS
[0.6 0 0 0.6 0 0] CT
1 GC
N
876 542 M
1390 542 L
1390 370 L
876 370 L
cp
f
GR
GS
[0.6 0 0 0.6 0 0] CT
0.149 GC
2 setlinecap
1 LJ
0.833 LW
N
876 542 M
1390 542 L
S
GR
GS
[0.6 0 0 0.6 0 0] CT
0.149 GC
2 setlinecap
1 LJ
0.833 LW
N
876 370 M
1390 370 L
S
GR
GS
[0.6 0 0 0.6 0 0] CT
0.149 GC
2 setlinecap
1 LJ
0.833 LW
N
876 542 M
876 536.86 L
S
GR
GS
[0.6 0 0 0.6 0 0] CT
0.149 GC
2 setlinecap
1 LJ
0.833 LW
N
1004.5 542 M
1004.5 536.86 L
S
GR
GS
[0.6 0 0 0.6 0 0] CT
0.149 GC
2 setlinecap
1 LJ
0.833 LW
N
1133 542 M
1133 536.86 L
S
GR
GS
[0.6 0 0 0.6 0 0] CT
0.149 GC
2 setlinecap
1 LJ
0.833 LW
N
1261.5 542 M
1261.5 536.86 L
S
GR
GS
[0.6 0 0 0.6 0 0] CT
0.149 GC
2 setlinecap
1 LJ
0.833 LW
N
1390 542 M
1390 536.86 L
S
GR
GS
[0.6 0 0 0.6 0 0] CT
0.149 GC
2 setlinecap
1 LJ
0.833 LW
N
876 370 M
876 375.14 L
S
GR
GS
[0.6 0 0 0.6 0 0] CT
0.149 GC
2 setlinecap
1 LJ
0.833 LW
N
1004.5 370 M
1004.5 375.14 L
S
GR
GS
[0.6 0 0 0.6 0 0] CT
0.149 GC
2 setlinecap
1 LJ
0.833 LW
N
1133 370 M
1133 375.14 L
S
GR
GS
[0.6 0 0 0.6 0 0] CT
0.149 GC
2 setlinecap
1 LJ
0.833 LW
N
1261.5 370 M
1261.5 375.14 L
S
GR
GS
[0.6 0 0 0.6 0 0] CT
0.149 GC
2 setlinecap
1 LJ
0.833 LW
N
1390 370 M
1390 375.14 L
S
GR
GS
[0.6 0 0 0.6 525.60002 330.19999] CT
0.149 GC
/Helvetica-Bold 25 F
GS
[1 0 0 1 0 0] CT
-7 26 moveto 
1 -1 scale
(0) t 
GR
GR
GS
[0.6 0 0 0.6 602.70002 330.19999] CT
0.149 GC
/Helvetica-Bold 25 F
GS
[1 0 0 1 0 0] CT
-17.5 26 moveto 
1 -1 scale
(0.5) t 
GR
GR
GS
[0.6 0 0 0.6 679.80003 330.19999] CT
0.149 GC
/Helvetica-Bold 25 F
GS
[1 0 0 1 0 0] CT
-7 26 moveto 
1 -1 scale
(1) t 
GR
GR
GS
[0.6 0 0 0.6 756.90003 330.19999] CT
0.149 GC
/Helvetica-Bold 25 F
GS
[1 0 0 1 0 0] CT
-17.5 26 moveto 
1 -1 scale
(1.5) t 
GR
GR
GS
[0.6 0 0 0.6 834.00003 330.19999] CT
0.149 GC
/Helvetica-Bold 25 F
GS
[1 0 0 1 0 0] CT
-7 26 moveto 
1 -1 scale
(2) t 
GR
GR
GS
[0.6 0 0 0.6 646.20003 367.2] CT
0.149 GC
N
f876989070
f
GR
GS
[0.6 0 0 0.6 657.60003 367.2] CT
0.149 GC
/Helvetica-Bold 27.5 F
GS
[1 0 0 1 0 0] CT
0 0 moveto 
1 -1 scale
( [rad/s]) t 
GR
GR
GS
[0.6 0 0 0.6 0 0] CT
0.149 GC
2 setlinecap
1 LJ
0.833 LW
N
876 542 M
876 370 L
S
GR
GS
[0.6 0 0 0.6 0 0] CT
0.149 GC
2 setlinecap
1 LJ
0.833 LW
N
1390 542 M
1390 370 L
S
GR
GS
[0.6 0 0 0.6 0 0] CT
0.149 GC
2 setlinecap
1 LJ
0.833 LW
N
876 542 M
881.14 542 L
S
GR
GS
[0.6 0 0 0.6 0 0] CT
0.149 GC
2 setlinecap
1 LJ
0.833 LW
N
876 456 M
881.14 456 L
S
GR
GS
[0.6 0 0 0.6 0 0] CT
0.149 GC
2 setlinecap
1 LJ
0.833 LW
N
876 370 M
881.14 370 L
S
GR
GS
[0.6 0 0 0.6 0 0] CT
0.149 GC
2 setlinecap
1 LJ
0.833 LW
N
1390 542 M
1384.86 542 L
S
GR
GS
[0.6 0 0 0.6 0 0] CT
0.149 GC
2 setlinecap
1 LJ
0.833 LW
N
1390 456 M
1384.86 456 L
S
GR
GS
[0.6 0 0 0.6 0 0] CT
0.149 GC
2 setlinecap
1 LJ
0.833 LW
N
1390 370 M
1384.86 370 L
S
GR
GS
[0.6 0 0 0.6 520.60003 325.2] CT
0.149 GC
/Helvetica-Bold 25 F
GS
[1 0 0 1 0 0] CT
-14 10 moveto 
1 -1 scale
(0) t 
GR
GR
GS
[0.6 0 0 0.6 520.60003 273.6] CT
0.149 GC
/Helvetica-Bold 25 F
GS
[1 0 0 1 0 0] CT
-14 10 moveto 
1 -1 scale
(5) t 
GR
GR
GS
[0.6 0 0 0.6 520.60003 222] CT
0.149 GC
/Helvetica-Bold 25 F
GS
[1 0 0 1 0 0] CT
-28 10 moveto 
1 -1 scale
(10) t 
GR
GR
GS
[0 -0.6 0.6 0 490.20002 286.2] CT
0.149 GC
/Helvetica-Bold 27.5 F
GS
[1 0 0 1 0 0] CT
0 0 moveto 
1 -1 scale
(b) t 
GR
GR
GS
[0 -0.6 0.6 0 498.00002 276] CT
0.149 GC
/Helvetica-Bold 22 F
GS
[1 0 0 1 0 0] CT
0 0 moveto 
1 -1 scale
(44) t 
GR
GR
GS
[0.6 0 0 0.6 525.60002 218.4] CT
0.149 GC
N
f1086612530
f
GR
GS
[0.6 0 0 0.6 538.20002 218.4] CT
0.149 GC
/Helvetica-Bold 25 F
GS
[1 0 0 1 0 0] CT
0 0 moveto 
1 -1 scale
(10) t 
GR
GR
GS
[0.6 0 0 0.6 555.00002 211.2] CT
0.149 GC
/Helvetica-Bold 20 F
GS
[1 0 0 1 0 0] CT
0 0 moveto 
1 -1 scale
(6) t 
GR
GR
GS
[0.6 0 0 0.6 0 0] CT
0 0 1 RC
1 LJ
3.333 LW
N
901.7 541.994 M
913.907 541.982 L
926.115 541.96 L
938.323 541.924 L
950.53 541.867 L
962.737 541.777 L
974.945 541.631 L
987.153 541.394 L
999.36 541.006 L
1011.568 540.385 L
1023.775 539.413 L
1035.983 537.936 L
1048.19 535.759 L
1060.397 532.643 L
1072.605 528.312 L
1084.813 522.463 L
1097.02 514.797 L
1109.228 505.07 L
1121.435 493.163 L
1133.642 479.186 L
1145.85 463.579 L
1158.057 447.184 L
1170.265 431.2 L
1182.473 417.014 L
1194.68 405.903 L
1206.887 398.727 L
1219.095 395.763 L
1231.302 396.734 L
1243.51 400.982 L
1255.718 407.695 L
1267.925 416.084 L
1280.132 425.482 L
1292.34 435.375 L
1304.547 445.386 L
1316.755 455.241 L
1328.963 464.727 L
1341.17 473.678 L
1353.377 481.962 L
1365.585 489.493 L
1377.792 496.23 L
1390 502.176 L
S
GR
GS
[0.6 0 0 0.6 0 0] CT
1 0 0 RC
[12 12] 0 setdash
2 LJ
3.333 LW
N
901.7 541.994 M
913.907 541.982 L
926.115 541.96 L
938.323 541.924 L
950.53 541.867 L
962.737 541.777 L
974.945 541.631 L
987.153 541.394 L
999.36 541.006 L
1011.568 540.385 L
1023.775 539.414 L
1035.983 537.937 L
1048.19 535.76 L
1060.397 532.643 L
1072.605 528.309 L
1084.813 522.453 L
1097.02 514.777 L
1109.228 505.028 L
1121.435 493.088 L
1133.642 479.057 L
1145.85 463.379 L
1158.057 446.893 L
1170.265 430.801 L
1182.473 416.512 L
1194.68 405.31 L
1206.887 398.069 L
1219.095 395.076 L
1231.302 396.054 L
1243.51 400.317 L
1255.718 407.07 L
1267.925 415.508 L
1280.132 424.929 L
1292.34 434.85 L
1304.547 444.893 L
1316.755 454.784 L
1328.963 464.262 L
1341.17 473.208 L
1353.377 481.505 L
1365.585 489.046 L
1377.792 495.771 L
1390 501.67 L
S
GR
GS
[0.6 0 0 0.6 0 0] CT
1 GC
N
200 829 M
714 829 L
714 658 L
200 658 L
cp
f
GR
GS
[0.6 0 0 0.6 0 0] CT
0.149 GC
2 setlinecap
1 LJ
0.833 LW
N
200 829 M
714 829 L
S
GR
GS
[0.6 0 0 0.6 0 0] CT
0.149 GC
2 setlinecap
1 LJ
0.833 LW
N
200 658 M
714 658 L
S
GR
GS
[0.6 0 0 0.6 0 0] CT
0.149 GC
2 setlinecap
1 LJ
0.833 LW
N
200 829 M
200 823.86 L
S
GR
GS
[0.6 0 0 0.6 0 0] CT
0.149 GC
2 setlinecap
1 LJ
0.833 LW
N
328.5 829 M
328.5 823.86 L
S
GR
GS
[0.6 0 0 0.6 0 0] CT
0.149 GC
2 setlinecap
1 LJ
0.833 LW
N
457 829 M
457 823.86 L
S
GR
GS
[0.6 0 0 0.6 0 0] CT
0.149 GC
2 setlinecap
1 LJ
0.833 LW
N
585.5 829 M
585.5 823.86 L
S
GR
GS
[0.6 0 0 0.6 0 0] CT
0.149 GC
2 setlinecap
1 LJ
0.833 LW
N
714 829 M
714 823.86 L
S
GR
GS
[0.6 0 0 0.6 0 0] CT
0.149 GC
2 setlinecap
1 LJ
0.833 LW
N
200 658 M
200 663.14 L
S
GR
GS
[0.6 0 0 0.6 0 0] CT
0.149 GC
2 setlinecap
1 LJ
0.833 LW
N
328.5 658 M
328.5 663.14 L
S
GR
GS
[0.6 0 0 0.6 0 0] CT
0.149 GC
2 setlinecap
1 LJ
0.833 LW
N
457 658 M
457 663.14 L
S
GR
GS
[0.6 0 0 0.6 0 0] CT
0.149 GC
2 setlinecap
1 LJ
0.833 LW
N
585.5 658 M
585.5 663.14 L
S
GR
GS
[0.6 0 0 0.6 0 0] CT
0.149 GC
2 setlinecap
1 LJ
0.833 LW
N
714 658 M
714 663.14 L
S
GR
GS
[0.6 0 0 0.6 120 502.39999] CT
0.149 GC
/Helvetica-Bold 25 F
GS
[1 0 0 1 0 0] CT
-7 26 moveto 
1 -1 scale
(0) t 
GR
GR
GS
[0.6 0 0 0.6 197.10001 502.39999] CT
0.149 GC
/Helvetica-Bold 25 F
GS
[1 0 0 1 0 0] CT
-17.5 26 moveto 
1 -1 scale
(0.5) t 
GR
GR
GS
[0.6 0 0 0.6 274.20001 502.39999] CT
0.149 GC
/Helvetica-Bold 25 F
GS
[1 0 0 1 0 0] CT
-7 26 moveto 
1 -1 scale
(1) t 
GR
GR
GS
[0.6 0 0 0.6 351.30001 502.39999] CT
0.149 GC
/Helvetica-Bold 25 F
GS
[1 0 0 1 0 0] CT
-17.5 26 moveto 
1 -1 scale
(1.5) t 
GR
GR
GS
[0.6 0 0 0.6 428.40002 502.39999] CT
0.149 GC
/Helvetica-Bold 25 F
GS
[1 0 0 1 0 0] CT
-7 26 moveto 
1 -1 scale
(2) t 
GR
GR
GS
[0.6 0 0 0.6 240.60001 539.4] CT
0.149 GC
N
f876989070
f
GR
GS
[0.6 0 0 0.6 252.00001 539.4] CT
0.149 GC
/Helvetica-Bold 27.5 F
GS
[1 0 0 1 0 0] CT
0 0 moveto 
1 -1 scale
( [rad/s]) t 
GR
GR
GS
[0.6 0 0 0.6 0 0] CT
0.149 GC
2 setlinecap
1 LJ
0.833 LW
N
200 829 M
200 658 L
S
GR
GS
[0.6 0 0 0.6 0 0] CT
0.149 GC
2 setlinecap
1 LJ
0.833 LW
N
714 829 M
714 658 L
S
GR
GS
[0.6 0 0 0.6 0 0] CT
0.149 GC
2 setlinecap
1 LJ
0.833 LW
N
200 829 M
205.14 829 L
S
GR
GS
[0.6 0 0 0.6 0 0] CT
0.149 GC
2 setlinecap
1 LJ
0.833 LW
N
200 743.5 M
205.14 743.5 L
S
GR
GS
[0.6 0 0 0.6 0 0] CT
0.149 GC
2 setlinecap
1 LJ
0.833 LW
N
200 658 M
205.14 658 L
S
GR
GS
[0.6 0 0 0.6 0 0] CT
0.149 GC
2 setlinecap
1 LJ
0.833 LW
N
714 829 M
708.86 829 L
S
GR
GS
[0.6 0 0 0.6 0 0] CT
0.149 GC
2 setlinecap
1 LJ
0.833 LW
N
714 743.5 M
708.86 743.5 L
S
GR
GS
[0.6 0 0 0.6 0 0] CT
0.149 GC
2 setlinecap
1 LJ
0.833 LW
N
714 658 M
708.86 658 L
S
GR
GS
[0.6 0 0 0.6 115.00001 497.4] CT
0.149 GC
/Helvetica-Bold 25 F
GS
[1 0 0 1 0 0] CT
-14 10 moveto 
1 -1 scale
(0) t 
GR
GR
GS
[0.6 0 0 0.6 115.00001 446.1] CT
0.149 GC
/Helvetica-Bold 25 F
GS
[1 0 0 1 0 0] CT
-14 10 moveto 
1 -1 scale
(5) t 
GR
GR
GS
[0.6 0 0 0.6 115.00001 394.8] CT
0.149 GC
/Helvetica-Bold 25 F
GS
[1 0 0 1 0 0] CT
-28 10 moveto 
1 -1 scale
(10) t 
GR
GR
GS
[0 -0.6 0.6 0 84.6 458.4] CT
0.149 GC
/Helvetica-Bold 27.5 F
GS
[1 0 0 1 0 0] CT
0 0 moveto 
1 -1 scale
(b) t 
GR
GR
GS
[0 -0.6 0.6 0 92.4 448.2] CT
0.149 GC
/Helvetica-Bold 22 F
GS
[1 0 0 1 0 0] CT
0 0 moveto 
1 -1 scale
(55) t 
GR
GR
GS
[0.6 0 0 0.6 120 391.2] CT
0.149 GC
N
f1086612530
f
GR
GS
[0.6 0 0 0.6 132.60001 391.2] CT
0.149 GC
/Helvetica-Bold 25 F
GS
[1 0 0 1 0 0] CT
0 0 moveto 
1 -1 scale
(10) t 
GR
GR
GS
[0.6 0 0 0.6 149.40001 384] CT
0.149 GC
/Helvetica-Bold 20 F
GS
[1 0 0 1 0 0] CT
0 0 moveto 
1 -1 scale
(6) t 
GR
GR
GS
[0.6 0 0 0.6 0 0] CT
0 0 1 RC
1 LJ
3.333 LW
N
225.7 828.971 M
237.908 828.91 L
250.115 828.8 L
262.323 828.631 L
274.53 828.398 L
286.737 828.092 L
298.945 827.701 L
311.152 827.202 L
323.36 826.552 L
335.568 825.685 L
347.775 824.5 L
359.983 822.859 L
372.19 820.579 L
384.397 817.43 L
396.605 813.142 L
408.813 807.417 L
421.02 799.954 L
433.228 790.504 L
445.435 778.938 L
457.643 765.352 L
469.85 750.164 L
482.057 734.188 L
494.265 718.593 L
506.473 704.738 L
518.68 693.873 L
530.888 686.85 L
543.095 683.947 L
555.302 684.9 L
567.51 689.071 L
579.717 695.668 L
591.925 703.921 L
604.133 713.179 L
616.34 722.938 L
628.547 732.83 L
640.755 742.584 L
652.963 751.989 L
665.17 760.877 L
677.378 769.116 L
689.585 776.615 L
701.792 783.33 L
714 789.263 L
S
GR
GS
[0.6 0 0 0.6 0 0] CT
1 0 0 RC
[12 12] 0 setdash
2 LJ
3.333 LW
N
225.7 828.971 M
237.908 828.91 L
250.115 828.8 L
262.323 828.631 L
274.53 828.398 L
286.737 828.092 L
298.945 827.702 L
311.152 827.203 L
323.36 826.554 L
335.568 825.687 L
347.775 824.503 L
359.983 822.863 L
372.19 820.582 L
384.397 817.432 L
396.605 813.142 L
408.813 807.411 L
421.02 799.937 L
433.228 790.465 L
445.435 778.866 L
457.643 765.226 L
469.85 749.967 L
482.057 733.902 L
494.265 718.199 L
506.473 704.239 L
518.68 693.288 L
530.888 686.195 L
543.095 683.261 L
555.302 684.224 L
567.51 688.404 L
579.717 695.037 L
591.925 703.341 L
604.133 712.626 L
616.34 722.406 L
628.547 732.329 L
640.755 742.123 L
652.963 751.524 L
665.17 760.405 L
677.378 768.657 L
689.585 776.169 L
701.792 782.876 L
714 788.759 L
S
GR
GS
[0.6 0 0 0.6 0 0] CT
1 GC
N
876 829 M
1390 829 L
1390 658 L
876 658 L
cp
f
GR
GS
[0.6 0 0 0.6 0 0] CT
0.149 GC
2 setlinecap
1 LJ
0.833 LW
N
876 829 M
1390 829 L
S
GR
GS
[0.6 0 0 0.6 0 0] CT
0.149 GC
2 setlinecap
1 LJ
0.833 LW
N
876 658 M
1390 658 L
S
GR
GS
[0.6 0 0 0.6 0 0] CT
0.149 GC
2 setlinecap
1 LJ
0.833 LW
N
876 829 M
876 823.86 L
S
GR
GS
[0.6 0 0 0.6 0 0] CT
0.149 GC
2 setlinecap
1 LJ
0.833 LW
N
1004.5 829 M
1004.5 823.86 L
S
GR
GS
[0.6 0 0 0.6 0 0] CT
0.149 GC
2 setlinecap
1 LJ
0.833 LW
N
1133 829 M
1133 823.86 L
S
GR
GS
[0.6 0 0 0.6 0 0] CT
0.149 GC
2 setlinecap
1 LJ
0.833 LW
N
1261.5 829 M
1261.5 823.86 L
S
GR
GS
[0.6 0 0 0.6 0 0] CT
0.149 GC
2 setlinecap
1 LJ
0.833 LW
N
1390 829 M
1390 823.86 L
S
GR
GS
[0.6 0 0 0.6 0 0] CT
0.149 GC
2 setlinecap
1 LJ
0.833 LW
N
876 658 M
876 663.14 L
S
GR
GS
[0.6 0 0 0.6 0 0] CT
0.149 GC
2 setlinecap
1 LJ
0.833 LW
N
1004.5 658 M
1004.5 663.14 L
S
GR
GS
[0.6 0 0 0.6 0 0] CT
0.149 GC
2 setlinecap
1 LJ
0.833 LW
N
1133 658 M
1133 663.14 L
S
GR
GS
[0.6 0 0 0.6 0 0] CT
0.149 GC
2 setlinecap
1 LJ
0.833 LW
N
1261.5 658 M
1261.5 663.14 L
S
GR
GS
[0.6 0 0 0.6 0 0] CT
0.149 GC
2 setlinecap
1 LJ
0.833 LW
N
1390 658 M
1390 663.14 L
S
GR
GS
[0.6 0 0 0.6 525.60002 502.39999] CT
0.149 GC
/Helvetica-Bold 25 F
GS
[1 0 0 1 0 0] CT
-7 26 moveto 
1 -1 scale
(0) t 
GR
GR
GS
[0.6 0 0 0.6 602.70002 502.39999] CT
0.149 GC
/Helvetica-Bold 25 F
GS
[1 0 0 1 0 0] CT
-17.5 26 moveto 
1 -1 scale
(0.5) t 
GR
GR
GS
[0.6 0 0 0.6 679.80003 502.39999] CT
0.149 GC
/Helvetica-Bold 25 F
GS
[1 0 0 1 0 0] CT
-7 26 moveto 
1 -1 scale
(1) t 
GR
GR
GS
[0.6 0 0 0.6 756.90003 502.39999] CT
0.149 GC
/Helvetica-Bold 25 F
GS
[1 0 0 1 0 0] CT
-17.5 26 moveto 
1 -1 scale
(1.5) t 
GR
GR
GS
[0.6 0 0 0.6 834.00003 502.39999] CT
0.149 GC
/Helvetica-Bold 25 F
GS
[1 0 0 1 0 0] CT
-7 26 moveto 
1 -1 scale
(2) t 
GR
GR
GS
[0.6 0 0 0.6 646.20003 539.4] CT
0.149 GC
N
f876989070
f
GR
GS
[0.6 0 0 0.6 657.60003 539.4] CT
0.149 GC
/Helvetica-Bold 27.5 F
GS
[1 0 0 1 0 0] CT
0 0 moveto 
1 -1 scale
( [rad/s]) t 
GR
GR
GS
[0.6 0 0 0.6 0 0] CT
0.149 GC
2 setlinecap
1 LJ
0.833 LW
N
876 829 M
876 658 L
S
GR
GS
[0.6 0 0 0.6 0 0] CT
0.149 GC
2 setlinecap
1 LJ
0.833 LW
N
1390 829 M
1390 658 L
S
GR
GS
[0.6 0 0 0.6 0 0] CT
0.149 GC
2 setlinecap
1 LJ
0.833 LW
N
876 829 M
881.14 829 L
S
GR
GS
[0.6 0 0 0.6 0 0] CT
0.149 GC
2 setlinecap
1 LJ
0.833 LW
N
876 743.5 M
881.14 743.5 L
S
GR
GS
[0.6 0 0 0.6 0 0] CT
0.149 GC
2 setlinecap
1 LJ
0.833 LW
N
876 658 M
881.14 658 L
S
GR
GS
[0.6 0 0 0.6 0 0] CT
0.149 GC
2 setlinecap
1 LJ
0.833 LW
N
1390 829 M
1384.86 829 L
S
GR
GS
[0.6 0 0 0.6 0 0] CT
0.149 GC
2 setlinecap
1 LJ
0.833 LW
N
1390 743.5 M
1384.86 743.5 L
S
GR
GS
[0.6 0 0 0.6 0 0] CT
0.149 GC
2 setlinecap
1 LJ
0.833 LW
N
1390 658 M
1384.86 658 L
S
GR
GS
[0.6 0 0 0.6 520.60003 497.4] CT
0.149 GC
/Helvetica-Bold 25 F
GS
[1 0 0 1 0 0] CT
-14 10 moveto 
1 -1 scale
(0) t 
GR
GR
GS
[0.6 0 0 0.6 520.60003 446.1] CT
0.149 GC
/Helvetica-Bold 25 F
GS
[1 0 0 1 0 0] CT
-14 10 moveto 
1 -1 scale
(1) t 
GR
GR
GS
[0.6 0 0 0.6 520.60003 394.8] CT
0.149 GC
/Helvetica-Bold 25 F
GS
[1 0 0 1 0 0] CT
-14 10 moveto 
1 -1 scale
(2) t 
GR
GR
GS
[0 -0.6 0.6 0 498.60002 458.4] CT
0.149 GC
/Helvetica-Bold 27.5 F
GS
[1 0 0 1 0 0] CT
0 0 moveto 
1 -1 scale
(b) t 
GR
GR
GS
[0 -0.6 0.6 0 506.40002 448.2] CT
0.149 GC
/Helvetica-Bold 22 F
GS
[1 0 0 1 0 0] CT
0 0 moveto 
1 -1 scale
(66) t 
GR
GR
GS
[0.6 0 0 0.6 525.60002 391.2] CT
0.149 GC
N
f1086612530
f
GR
GS
[0.6 0 0 0.6 538.20002 391.2] CT
0.149 GC
/Helvetica-Bold 25 F
GS
[1 0 0 1 0 0] CT
0 0 moveto 
1 -1 scale
(10) t 
GR
GR
GS
[0.6 0 0 0.6 555.00002 384] CT
0.149 GC
/Helvetica-Bold 20 F
GS
[1 0 0 1 0 0] CT
0 0 moveto 
1 -1 scale
(7) t 
GR
GR
GS
[0.6 0 0 0.6 0 0] CT
0 0 1 RC
1 LJ
3.333 LW
N
901.7 829 M
913.907 829 L
926.115 828.999 L
938.323 828.997 L
950.53 828.989 L
962.737 828.967 L
974.945 828.92 L
987.153 828.822 L
999.36 828.64 L
1011.568 828.318 L
1023.775 827.78 L
1035.983 826.922 L
1048.19 825.602 L
1060.397 823.639 L
1072.605 820.805 L
1084.813 816.827 L
1097.02 811.398 L
1109.228 804.201 L
1121.435 794.966 L
1133.642 783.546 L
1145.85 770.026 L
1158.057 754.819 L
1170.265 738.701 L
1182.473 722.731 L
1194.68 708.034 L
1206.887 695.532 L
1219.095 685.729 L
1231.302 678.653 L
1243.51 673.949 L
1255.718 671.055 L
1267.925 669.387 L
1280.132 668.478 L
1292.34 668.064 L
1304.547 668.104 L
1316.755 668.73 L
1328.963 670.144 L
1341.17 672.479 L
1353.377 675.708 L
1365.585 679.636 L
1377.792 683.965 L
1390 688.405 L
S
GR
GS
[0.6 0 0 0.6 0 0] CT
1 0 0 RC
[12 12] 0 setdash
2 LJ
3.333 LW
N
901.7 829 M
913.907 829 L
926.115 828.999 L
938.323 828.997 L
950.53 828.989 L
962.737 828.967 L
974.945 828.92 L
987.153 828.823 L
999.36 828.64 L
1011.568 828.318 L
1023.775 827.781 L
1035.983 826.923 L
1048.19 825.604 L
1060.397 823.64 L
1072.605 820.805 L
1084.813 816.823 L
1097.02 811.386 L
1109.228 804.172 L
1121.435 794.909 L
1133.642 783.442 L
1145.85 769.855 L
1158.057 754.558 L
1170.265 738.325 L
1182.473 722.234 L
1194.68 707.415 L
1206.887 694.808 L
1219.095 684.929 L
1231.302 677.803 L
1243.51 673.056 L
1255.718 670.141 L
1267.925 668.445 L
1280.132 667.462 L
1292.34 666.962 L
1304.547 666.89 L
1316.755 667.394 L
1328.963 668.633 L
1341.17 670.823 L
1353.377 673.946 L
1365.585 677.781 L
1377.792 682.022 L
1390 686.36 L
S
GR
%%Trailer
%%Pages: 1
%%EOF
